{
	"id": "f31d5cd5-6559-4e48-911d-ed56872719b3",
	"name": "QA",
	"values": [
		{
			"key": "token",
			"value": "9224b8ab896c1200bd78ca940a8f98930a41945b",
			"enabled": true
		},
		{
			"key": "projectsURL",
			"value": "https://api.todoist.com/rest/v1/projects",
			"enabled": true
		},
		{
			"key": "tasksURL",
			"value": "https://api.todoist.com/rest/v1/tasks",
			"enabled": true
		},
		{
			"key": "projectName",
			"value": "assessment-session2",
			"enabled": true
		},
		{
			"key": "projectId",
			"value": "",
			"enabled": true
		},
		{
			"key": "taskId",
			"value": "",
			"enabled": true
		}
	],
	"_postman_variable_scope": "environment",
	"_postman_exported_at": "2021-03-23T05:48:31.919Z",
	"_postman_exported_using": "Postman/8.0.7"
}