[
  {
    "email": "david.silva@gmail.com",
    "password": "!1@2#3$4%5",
    "firstname": "David",
    "lastname": "Silva"
  },
  {
    "email": "notemail",
    "password": "wrongpassword"
  },
  {
    "email": "david.silva@gmail.com",
    "password": "wrongpassword"
  }
]